Introduction to data visualization, web scraping, and text analysis in R: Session 2
…
In-class Work

J.M.T. Roos

Last updated: 2019-06-26 14:55:28

Excercise set 1

For Tasks 14 use the following data

library(tidyverse)
mpg %>% tbl_df

## # A tibble: 234 x 11
##    manufacturer model displ  year   cyl trans drv     cty   hwy fl    class
##    <chr>        <chr> <dbl> <int> <int> <chr> <chr> <int> <int> <chr> <chr>
##  1 audi         a4      1.8  1999     4 auto f        18    29 p     comp
##  2 audi         a4      1.8  1999     4 manu f        21    29 p     comp
##  3 audi         a4      2    2008     4 manu f        20    31 p     comp
##  4 audi         a4      2    2008     4 auto f        21    30 p     comp
##  5 audi         a4      2.8  1999     6 auto f        16    26 p     comp
##  6 audi         a4      2.8  1999     6 manu f        18    26 p     comp
##  7 audi         a4      3.1  2008     6 auto f        18    27 p     comp
##  8 audi         a4 q   1.8  1999     4 manu 4        18    26 p     comp
##  9 audi         a4 q   1.8  1999     4 auto 4        16    25 p     comp
## 10 audi         a4 q   2    2008     4 manu 4        20    28 p     comp
## #  with 224 more rows
…
Layer 2:

geom smooth

default stat and position

Exercise set 2

For Task 5, use the following data

library(tidyverse)
mpg %>% tbl_df

## # A tibble: 234 x 11
##    manufacturer model displ  year   cyl trans drv     cty   hwy fl    class
##    <chr>        <chr> <dbl> <int> <int> <chr> <chr> <int> <int> <chr> <chr>
##  1 audi         a4      1.8  1999     4 auto f        18    29 p     comp
##  2 audi         a4      1.8  1999     4 manu f        21    29 p     comp
##  3 audi         a4      2    2008     4 manu f        20    31 p     comp
##  4 audi         a4      2    2008     4 auto f        21    30 p     comp
##  5 audi         a4      2.8  1999     6 auto f        16    26 p     comp
##  6 audi         a4      2.8  1999     6 manu f        18    26 p     comp
##  7 audi         a4      3.1  2008     6 auto f        18    27 p     comp
##  8 audi         a4 q   1.8  1999     4 manu 4        18    26 p     comp
##  9 audi         a4 q   1.8  1999     4 auto 4        16    25 p     comp
## 10 audi         a4 q   2    2008     4 manu 4        20    28 p     comp
## #  with 224 more rows
…
Exercise set 3

For tasks 611, use the following data:

library(tidyverse)
data(mpg, package = "ggplot2")
mpg %>% tbl_df

## # A tibble: 234 x 11
##    manufacturer model displ  year   cyl trans drv     cty   hwy fl    class
##    <chr>        <chr> <dbl> <int> <int> <chr> <chr> <int> <int> <chr> <chr>
##  1 audi         a4      1.8  1999     4 auto f        18    29 p     comp
##  2 audi         a4      1.8  1999     4 manu f        21    29 p     comp
##  3 audi         a4      2    2008     4 manu f        20    31 p     comp
##  4 audi         a4      2    2008     4 auto f        21    30 p     comp
##  5 audi         a4      2.8  1999     6 auto f        16    26 p     comp
##  6 audi         a4      2.8  1999     6 manu f        18    26 p     comp
##  7 audi         a4      3.1  2008     6 auto f        18    27 p     comp
##  8 audi         a4 q   1.8  1999     4 manu 4        18    26 p     comp
##  9 audi         a4 q   1.8  1999     4 auto 4        16    25 p     comp
## 10 audi         a4 q   2    2008     4 manu 4        20    28 p     comp
## #  with 224 more rows

Task 6

Use the select verb to extract the following columns from mpg: manufacturer, model, displ, year, cyl, trans, cty, hwy and view the output, which should look something like this:

## # A tibble: 234 x 8
##    manufacturer model      displ  year   cyl trans        cty   hwy
##    <chr>        <chr>      <dbl> <int> <int> <chr>      <int> <int>
##  1 audi         a4           1.8  1999     4 auto(l5)      18    29
##  2 audi         a4           1.8  1999     4 manual(m5)    21    29
##  3 audi         a4           2    2008     4 manual(m6)    20    31
##  4 audi         a4           2    2008     4 auto(av)      21    30
##  5 audi         a4           2.8  1999     6 auto(l5)      16    26
##  6 audi         a4           2.8  1999     6 manual(m5)    18    26
##  7 audi         a4           3.1  2008     6 auto(av)      18    27
##  8 audi         a4 quattro   1.8  1999     4 manual(m5)    18    26
##  9 audi         a4 quattro   1.8  1999     4 auto(l5)      16    25
## 10 audi         a4 quattro   2    2008     4 manual(m6)    20    28
## #  with 224 more rows
Create a new data frame called mpg2 that contains this subset of columns (i.e.):

mpg2 <- mpg %>% [ your code from the previous step ]

Task 7

Working with mpg2, use the mutate verb to create two new columns:

displ2 is equal to the square of displacement (i.e., displ * displ or displ^2)

vol_per_cyl that is equal to displ divided by cyl (i.e., displ / cyl, rounded to the nearest 1/100th of a liter (i.e., two decimal places)

Your output should look like this:

## # A tibble: 234 x 10
##    manufacturer model displ  year   cyl trans   cty   hwy displ2
##    <chr>        <chr> <dbl> <int> <int> <chr> <int> <int>  <dbl>
##  1 audi         a4      1.8  1999     4 auto    18    29   3.24
##  2 audi         a4      1.8  1999     4 manu    21    29   3.24
##  3 audi         a4      2    2008     4 manu    20    31   4   
##  4 audi         a4      2    2008     4 auto    21    30   4   
##  5 audi         a4      2.8  1999     6 auto    16    26   7.84
##  6 audi         a4      2.8  1999     6 manu    18    26   7.84
##  7 audi         a4      3.1  2008     6 auto    18    27   9.61
##  8 audi         a4 q   1.8  1999     4 manu    18    26   3.24
##  9 audi         a4 q   1.8  1999     4 auto    16    25   3.24
## 10 audi         a4 q   2    2008     4 manu    20    28   4   
## #  with 224 more rows, and 1 more variable: vol_per_cyl <dbl>

Create a new data frame called mpg3 that contains this new data frame with the two extra columns

mpg3 <- mpg2 %>% [ your code from the previous step ]

Task 8

Working with mpg3, use the arrange verb to re-order the rows in descending order of vol_per_cyl

## # A tibble: 234 x 10
##    manufacturer model displ  year   cyl trans   cty   hwy displ2
##    <chr>        <chr> <dbl> <int> <int> <chr> <int> <int>  <dbl>
##  1 chevrolet    corv   7    2008     8 manu    15    24   49  
##  2 chevrolet    k150   6.5  1999     8 auto    14    17   42.2
##  3 chevrolet    corv   6.2  2008     8 manu    16    26   38.4
##  4 chevrolet    corv   6.2  2008     8 auto    15    25   38.4
##  5 jeep         gran   6.1  2008     8 auto    11    14   37.2
##  6 chevrolet    c150   6    2008     8 auto    12    17   36  
##  7 dodge        dura   5.9  1999     8 auto    11    15   34.8
##  8 dodge        ram    5.9  1999     8 auto    11    15   34.8
##  9 chevrolet    c150   5.7  1999     8 auto    13    17   32.5
## 10 chevrolet    corv   5.7  1999     8 manu    16    26   32.5
## #  with 224 more rows, and 1 more variable: vol_per_cyl <dbl>
…
Working again with mpg3, use the group_by verb to group this data frame by manufacturer and year. Then, for each unique pair of manufacturer and year, calculate the largest value of vol_per_cyl. Call this new column max_vol_per_cyl.

## # A tibble: 30 x 3
## # Groups:   manufacturer [?]
##    manufacturer  year max_vol_per_cyl
##    <chr>        <int>           <dbl>
##  1 audi          1999            0.47
##  2 audi          2008            0.52
##  3 chevrolet     1999            0.81
##  4 chevrolet     2008            0.88
##  5 dodge         1999            0.74
##  6 dodge         2008            0.71
##  7 ford          1999            0.7 
##  8 ford          2008            0.68
##  9 honda         1999            0.4 
## 10 honda         2008            0.5 
## #  with 20 more rows
…
Exercise set 4

Data for tasks 1214 is obtained by installing the nycflights13 package:

install.packages("nycflights13")

Load these packages

library(tidyverse)
library(nycflights13)
flights %>% tbl_df

## # A tibble: 336,776 x 19
##     year month   day dep_time sched_dep_time dep_delay arr_time
##    <int> <int> <int>    <int>          <int>     <dbl>    <int>
##  1  2013     1     1      517            515         2      830
##  2  2013     1     1      533            529         4      850
##  3  2013     1     1      542            540         2      923
##  4  2013     1     1      544            545        -1     1004
##  5  2013     1     1      554            600        -6      812
##  6  2013     1     1      554            558        -4      740
##  7  2013     1     1      555            600        -5      913
##  8  2013     1     1      557            600        -3      709
##  9  2013     1     1      557            600        -3      838
## 10  2013     1     1      558            600        -2      753
## #  with 336,766 more rows, and 12 more variables: sched_arr_time <int>,
## #   arr_delay <dbl>, carrier <chr>, flight <int>, tailnum <chr>,
## #   origin <chr>, dest <chr>, air_time <dbl>, distance <dbl>, hour <dbl>,
## #   minute <dbl>, time_hour <dttm>
…
weather %>% tbl_df

## # A tibble: 26,115 x 15
##    origin  year month   day  hour  temp  dewp humid wind_dir wind_speed
##    <chr>  <dbl> <dbl> <int> <int> <dbl> <dbl> <dbl>    <dbl>      <dbl>
##  1 EWR     2013     1     1     1  39.0  26.1  59.4      270      10.4 
##  2 EWR     2013     1     1     2  39.0  27.0  61.6      250       8.06
##  3 EWR     2013     1     1     3  39.0  28.0  64.4      240      11.5 
##  4 EWR     2013     1     1     4  39.9  28.0  62.2      250      12.7 
##  5 EWR     2013     1     1     5  39.0  28.0  64.4      260      12.7 
##  6 EWR     2013     1     1     6  37.9  28.0  67.2      240      11.5 
##  7 EWR     2013     1     1     7  39.0  28.0  64.4      240      15.0 
##  8 EWR     2013     1     1     8  39.9  28.0  62.2      250      10.4 
##  9 EWR     2013     1     1     9  39.9  28.0  62.2      260      15.0 
## 10 EWR     2013     1     1    10  41    28.0  59.6      260      13.8 
## #  with 26,105 more rows, and 5 more variables: wind_gust <dbl>,
## #   precip <dbl>, pressure <dbl>, visib <dbl>, time_hour <dttm>

Task 12

Create two new data frames with subsets of columns from the flights and weather data frames, named flights2 and weather2.

flights2 <- flights %>% select(origin, year, month, day, hour, 
    sched_dep_time, dep_delay, carrier)
weather2 <- weather %>% select(origin, year, month, day, hour, 
    precip, wind_speed, visib)

Write code to perform an inner join between flights and airlines. The output should look like this:

## # A tibble: 336,776 x 9
##    origin  year month   day  hour sched_dep_time dep_delay carrier name    
##    <chr>  <int> <int> <int> <dbl>          <int>     <dbl> <chr>   <chr>   
##  1 EWR     2013     1     1     5            515         2 UA      United 
##  2 LGA     2013     1     1     5            529         4 UA      United 
##  3 JFK     2013     1     1     5            540         2 AA      America
##  4 JFK     2013     1     1     5            545        -1 B6      JetBlue
##  5 LGA     2013     1     1     6            600        -6 DL      Delta A
##  6 EWR     2013     1     1     5            558        -4 UA      United 
##  7 EWR     2013     1     1     6            600        -5 B6      JetBlue
##  8 LGA     2013     1     1     6            600        -3 EV      Express
##  9 JFK     2013     1     1     6            600        -3 B6      JetBlue
## 10 LGA     2013     1     1     6            600        -2 AA      America
## #  with 336,766 more rows

Which column was used as the key for this join?

Next, write code to perform an outer join between flights2 and weather2 that includes all rows from flights2. Your output should look like this:

## Joining, by = c("origin", "year", "month", "day", "hour")

## # A tibble: 336,776 x 11
##    origin  year month   day  hour sched_dep_time dep_delay carrier precip
##    <chr>  <dbl> <dbl> <int> <dbl>          <int>     <dbl> <chr>    <dbl>
##  1 EWR     2013     1     1     5            515         2 UA           0
##  2 LGA     2013     1     1     5            529         4 UA           0
##  3 JFK     2013     1     1     5            540         2 AA           0
##  4 JFK     2013     1     1     5            545        -1 B6           0
##  5 LGA     2013     1     1     6            600        -6 DL           0
##  6 EWR     2013     1     1     5            558        -4 UA           0
##  7 EWR     2013     1     1     6            600        -5 B6           0
##  8 LGA     2013     1     1     6            600        -3 EV           0
##  9 JFK     2013     1     1     6            600        -3 B6           0
## 10 LGA     2013     1     1     6            600        -2 AA           0
## #  with 336,766 more rows, and 2 more variables: wind_speed <dbl>,
## #   visib <dbl>
…
Now write code to create a new data frame based on flights2 joined with weather2

The new data frame should only include rows corresponding with flights that had ideal conditions upon departure.

Name this new data frame good_weather_delays

Your code should include a call to inner_join and another call to filter. Use the %>% operator to chain all of this together

The data frame good_weather_delays should look like this:

## # A tibble: 8,278 x 11
##    origin  year month   day  hour sched_dep_time dep_delay carrier precip
##    <chr>  <dbl> <dbl> <int> <dbl>          <int>     <dbl> <chr>    <dbl>
##  1 LGA     2013     1     5    18           1800        -5 DL           0
##  2 LGA     2013     1     5    18           1810       -11 MQ           0
##  3 LGA     2013     1     5    18           1800         0 EV           0
##  4 LGA     2013     1     5    18           1805        -3 DL           0
##  5 LGA     2013     1     5    18           1800        11 WN           0
##  6 LGA     2013     1     5    18           1820        -3 DL           0
##  7 LGA     2013     1     5    18           1830       -10 MQ           0
##  8 LGA     2013     1     5    18           1810        15 AA           0
##  9 LGA     2013     1     5    18           1855        -6 US           0
## 10 LGA     2013     1     7    16           1600        -9 US           0
## #  with 8,268 more rows, and 2 more variables: wind_speed <dbl>,
## #   visib <dbl>
…
